<svg xmlns:xlink="http://www.w3.org/1999/xlink" width="100" height="100" viewbox="0 0 100 100" preserveAspectRatio="xMinYMin meet" xmlns="http://www.w3.org/2000/svg">
  <g transform="translate(0.5,0.5)">
    <g>
      <defs>
        <style type="text/css"><![CDATA[symbol { overflow: visible; }]]></style>
        <symbol id="23">
          <use xlink:href="#cloud-dark"></use>
          <use xlink:href="#lightning"></use>
          <use xlink:href="#snowflake-2"></use>
          <use xlink:href="#raindrop-3"></use>
          <!--<use xlink:href="#sleet-2" />
  <use xlink:href="#sleet-3" />-->
        </symbol>
        <symbol id="cloud-dark">
          <use xlink:href="#cloud-stroke-template" style="fill:#525552"></use>
          <use xlink:href="#cloud-inner-stroke-template" style="fill:#B6B6B6"></use>
          <use xlink:href="#cloud-inner-fill-template" style="fill:#C3C3C2"></use>
        </symbol>
        <symbol id="cloud-inner-fill-template">
          <path d="M78.35,50.725c-0.089,0-0.18,0.091-0.27,0.091c-4.141-0.271-6.93,0.72-9.18,3.779   c1.89,1.621,3.239,3.78,3.779,6.21c0.271,1.08-1.89,3.601-2.25,2.07c-0.54-2.25-1.8-4.23-3.6-5.67   c-0.091-0.09-0.18-0.181-0.18-0.27c-0.09,0-0.181,0-0.271-0.091c-4.86-3.779-14.399-4.95-17.37,2.07   c-0.18,0.45-0.9,1.62-1.53,1.529c-3.15-0.629-6.75-0.449-7.65,3.33c-0.27,1.17-2.61,2.881-2.16,0.721   c1.17-5.13,5.13-7.92,10.26-7.29c4.05-6.84,12.959-8.28,19.44-3.78c2.52-3.689,5.58-5.67,10.17-5.85   c-1.71-6.479-7.65-11.25-14.76-11.25c-4.05,0-7.83,1.621-10.53,4.23c0-0.09-0.09-0.18-0.09-0.27c-0.09,0.36-0.271,0.72-0.54,0.99   c-1.98,1.98-2.97,4.23-3.42,6.93c0,0.81-1.17,2.7-1.98,1.8c-3.78-4.14-12.42-1.8-14.58,2.97c-0.63,1.44-2.79,2.07-1.89,0   c2.61-5.76,11.34-10.8,17.1-6.66c0.9-2.7,2.34-4.95,4.411-7.11c0.089-0.09,0.27-0.18,0.359-0.27c-1.8-3.6-5.49-6.03-9.72-6.03   c-3.24,0-6.12,1.35-8.1,3.6c-0.9-0.63-2.07-1.08-3.33-1.08c-2.97,0-5.49,2.34-5.67,5.311c-4.32,0.089-7.74,3.6-7.74,7.919   c0,0.09,0,0.27,0,0.36c-2.25,0.72-3.78,2.79-3.78,5.31c0,0.18,0,0.27,0,0.449c-2.61,1.081-4.411,3.691-4.411,6.661   c0,4.05,3.24,7.289,7.291,7.289c4.05,0,58.229,0,61.2,0c4.95,0,9-4.05,9-9C86.36,55.045,82.85,51.175,78.35,50.725z" />
        </symbol>
        <symbol id="cloud-inner-stroke-template">
          <path d="M82.13,69.175c5.58,0,10.08-4.5,10.08-10.08c0-5.31-4.05-9.63-9.18-9.99   c-0.541-8.91-8.011-15.93-17.011-15.93c-4.59,0-8.729,1.8-11.789,4.68c-1.53-5.04-6.121-8.64-11.611-8.64c-3.6,0-6.75,1.53-9,3.96   c-1.08-0.72-2.339-1.17-3.689-1.17c-3.33,0-6.12,2.61-6.39,5.94c-4.77,0.09-8.64,3.959-8.64,8.82c0,0.18,0,0.27,0,0.45   c-2.52,0.81-4.23,3.15-4.23,5.94c0,0.18,0,0.27,0,0.45c-2.88,1.26-4.95,4.14-4.95,7.47c0,4.5,3.6,8.1,8.1,8.1   S78.89,69.175,82.13,69.175z" />
        </symbol>
        <symbol id="cloud-stroke-template">
          <path d="M84.561,70.885c5.76,0,10.439-4.68,10.439-10.44c0-5.489-4.23-9.989-9.54-10.439   c-0.63-9.27-8.28-16.65-17.729-16.65c-4.771,0-9.091,1.89-12.241,4.86c-1.529-5.22-6.389-9-12.149-9c-3.69,0-7.02,1.62-9.36,4.14   c-1.08-0.72-2.43-1.17-3.78-1.17c-3.51,0-6.39,2.7-6.66,6.12c-5.04,0.09-9,4.23-9,9.27c0,0.18,0,0.271,0,0.45   c-2.61,0.9-4.41,3.331-4.41,6.12c0,0.181,0,0.36,0,0.45C7.07,55.944,5,58.915,5,62.425c0,4.681,3.78,8.46,8.46,8.46   C18.14,70.885,81.14,70.885,84.561,70.885z" />
        </symbol>
        <symbol id="lightning">
          <polygon fill="url(#lightning-grad)" transform="translate(-17,24) scale(0.9)" stroke="#F5C459" stroke-miterlimit="10" points="63.1,18.9 44.7,41.1 51.6,41.1 41.1,59.6 47.6,59.6 36.9,81.2 58.9,54.2 52,54.2 62.7,37.4 55.1,37.4 " />
        </symbol>
        <linearGradient id="lightning-grad" gradientUnits="userSpaceOnUse" x1="1535" y1="2304.2002" x2="1535" y2="2241.4043" gradientTransform="matrix(1 0 0 1 -1485 -2223)">
          <stop offset="0" style="stop-color:#FAEC7D" />
          <stop offset="0.2974" style="stop-color:#F9E879" />
          <stop offset="0.6055" style="stop-color:#F6DB6F" />
          <stop offset="0.9175" style="stop-color:#F2C75D" />
          <stop offset="1" style="stop-color:#F0C057" />
        </linearGradient>
        <symbol id="raindrop">
          <path fill="url(#raindrop-grad)" stroke="#28A9DA" stroke-width="2" stroke-linecap="round" stroke-linejoin="round" stroke-miterlimit="10" d="   M49.9,38.6c-0.2,2.2-0.9,7-3.7,11.7c-2.8,4.7-1.4,11.2,3.7,11.2s6.8-6.1,3.7-11.3C50.5,44.9,50.2,40.8,49.9,38.6L49.9,38.6z" />
        </symbol>
        <symbol id="raindrop-3">
          <use x="29" y="45" xlink:href="#raindrop" transform="scale(0.9)"></use>
        </symbol>
        <radialGradient id="raindrop-grad" cx="295.6992" cy="-321.9395" r="16.9985" gradientTransform="matrix(1 0 0 -1 -247.5 -270)" gradientUnits="userSpaceOnUse">
          <stop offset="0" style="stop-color:#FFFFFF" />
          <stop offset="0.2457" style="stop-color:#CCE8FF" />
          <stop offset="0.474" style="stop-color:#A5D6FE" />
          <stop offset="0.6825" style="stop-color:#89C9FE" />
          <stop offset="0.8646" style="stop-color:#78C1FE" />
          <stop offset="1" style="stop-color:#72BEFE" />
        </radialGradient>
        <symbol id="snowflake">
          <path fill="#FFFFFF" stroke="#94CDE5" stroke-width="2.5" stroke-linecap="round" stroke-linejoin="round" stroke-miterlimit="10" d="   M48.6,41.2c-2.1,1.1-1.8,3.6-0.8,5.4c0.2,0.3,0.2,1-0.3,0.9s-0.8-0.4-1.2-0.7c-0.8-0.7-1.9-1.3-3-1.2c-2.4,0.2-3.6,2.8-2.3,4.8   c0.5,0.8,1.3,1.3,2.2,1.4c1.1,0.2,2.2-0.4,3.2,0.1c-0.3,0.7-0.9,0.9-1.5,1.4c-0.6,0.4-1.1,1-1.4,1.6c-0.7,1.4-0.3,3.3,1.2,4   c1.4,0.7,3,0.2,4-1c0.8-1.1,0.6-2.6,1.6-3.6c0.6,0.6,0.6,1.4,0.8,2.1c0.2,0.8,0.5,1.6,1.2,2.1c1.7,1.3,4.1,0.6,4.7-1.4   c0.6-2.1-0.9-3.5-2.6-4.4C54,52.5,53.3,52,54,51.6c0.5-0.2,0.9-0.1,1.5-0.1c0.8,0,1.6,0.1,2.4-0.3c1.8-0.9,2.4-3.2,1-4.7   c-1.6-1.7-3.8-0.9-5.2,0.5c-0.3,0.3-0.5,0.6-0.9,0.6c-0.5,0.1-0.4-0.8-0.3-1c0.3-0.9,0.7-1.8,0.6-2.7C52.7,41.6,50.6,40.1,48.6,41.2   C47.9,41.6,49.3,40.8,48.6,41.2z" />
        </symbol>
        <symbol id="snowflake-2">
          <use x="-1" y="38" xlink:href="#snowflake"></use>
        </symbol>
      </defs>
      <g transform="translate(0,0)">
        <g transform="scale(1)">
          <use xlink:href="#23" />
        </g>
      </g>
    </g>
  </g>
</svg>